Prediciendo Números en Imágenes
…
Tratemos de visualizar algunos de los datos. Para esto, hagamos una transformación de una parte de los datos.

# Transformando los datos para visualización
pixels_gathered <- train_raw %>%
  head(10000) %>%
  rename(label = X1) %>%
  mutate(instance = row_number()) %>%
  gather(pixel, value, -label, -instance) %>%
  tidyr::extract(pixel, "pixel", "(\\d+)", convert = TRUE) %>%
  mutate(pixel = pixel - 2,
         x = pixel %% 28,
         y = 28 - pixel %/% 28)
pixels_gathered

## # A tibble: 7,840,000 x 6
##    label instance pixel value     x     y
##    <int>    <int> <dbl> <int> <dbl> <dbl>
##  1     5        1     0     0     0    28
##  2     0        2     0     0     0    28
##  3     4        3     0     0     0    28
##  4     1        4     0     0     0    28
##  5     9        5     0     0     0    28
##  6     2        6     0     0     0    28
##  7     1        7     0     0     0    28
##  8     3        8     0     0     0    28
##  9     1        9     0     0     0    28
## 10     4       10     0     0     0    28
## # ... with 7,839,990 more rows
…
